^D:\PROJECTS\WABAC\PINVOKEC\DEBUG\DLLMAIN.OBJ|D:\PROJECTS\WABAC\PINVOKEC\DEBUG\PINVOKEC.OBJ|D:\PROJECTS\WABAC\PINVOKEC\DEBUG\STDAFX.OBJ
D:\PROJECTS\WABAC\DEBUG\PINVOKEC.ILK
D:\PROJECTS\WABAC\DEBUG\PINVOKEC.DLL
D:\PROJECTS\WABAC\DEBUG\PINVOKEC.PDB
