^D:\PROJECTS\WABAC\PINVOKEC\RELEASE\DLLMAIN.OBJ|D:\PROJECTS\WABAC\PINVOKEC\RELEASE\PINVOKEC.OBJ|D:\PROJECTS\WABAC\PINVOKEC\RELEASE\STDAFX.OBJ
D:\PROJECTS\WABAC\RELEASE\PINVOKEC.DLL
D:\PROJECTS\WABAC\RELEASE\PINVOKEC.IPDB
D:\PROJECTS\WABAC\RELEASE\PINVOKEC.IOBJ
D:\PROJECTS\WABAC\RELEASE\PINVOKEC.PDB
