{
  "iisSettings": {
    "windowsAuthentication": false,
    "anonymousAuthentication": true,
    "iisExpress": {
      "applicationUrl": "http://localhost:44000/",
      "sslPort": 44341
    }
  },
  "profiles": {
    "IISExpress": {
      "commandName": "IISExpress",
      "launchBrowser": true,
      "launchUrl": "home/texttwo",
      "environmentVariables": {
        "ASPNETCORE_HTTPS_PORT": "44341",
        "ASPNETCORE_ENVIRONMENT": "Development"
      }
    }
  }
}